# setting LC_ALL to "C"
# --> Including file '/project/bfys/graven/master/Gaudi/GaudiExamples/options/AlgTools.py'
# <-- End of file '/project/bfys/graven/master/Gaudi/GaudiExamples/options/AlgTools.py'
# applying configuration of GaudiExamplesCommonConf
# /***** User GaudiExamplesCommonConf/GaudiExamplesCommonConf ****************************************
# |-OutputLevel = 3
# |-DummyEvents = -1
# \----- (End of User GaudiExamplesCommonConf/GaudiExamplesCommonConf) -------------------------------
ApplicationMgr    SUCCESS
====================================================================================================================================
                                                   Welcome to ApplicationMgr (GaudiCoreSvc v32r1)
                                          running on stbc-i1.nikhef.nl on Thu Aug 22 00:54:58 2019
====================================================================================================================================
ApplicationMgr       INFO Application Manager Configured successfully
StatusCodeSvc        INFO initialize
MyAlg                INFO initializing....
ToolSvc.MyTool       INFO intialize() has been called
ToolSvc.MyTool       INFO Int    = 201
ToolSvc.MyTool       INFO Double = 2.011e+12
ToolSvc.MyTool       INFO String = two hundred and one
ToolSvc.MyTool       INFO Bool   = 1
ToolSvc.MyGaudi...   INFO intialize() has been called
ToolSvc.MyGaudi...   INFO Int    = 100
ToolSvc.MyGaudi...   INFO Double = 100
ToolSvc.MyGaudi...   INFO String = hundred
ToolSvc.MyGaudi...   INFO Bool   = 1
MyAlg.MyTool         INFO intialize() has been called
MyAlg.MyTool         INFO Int    = 101
MyAlg.MyTool         INFO Double = 1.011e+12
MyAlg.MyTool         INFO String = hundred one
MyAlg.MyTool         INFO Bool   = 0
MyAlg.MyGaudiTool    INFO intialize() has been called
MyAlg.MyGaudiTool    INFO Int    = 100
MyAlg.MyGaudiTool    INFO Double = 100
MyAlg.MyGaudiTool    INFO String = hundred
MyAlg.MyGaudiTool    INFO Bool   = 1
MyAlg.ToolWithName   INFO intialize() has been called
MyAlg.ToolWithName   INFO Int    = 10
MyAlg.ToolWithName   INFO Double = 20
MyAlg.ToolWithName   INFO String = abc
MyAlg.ToolWithName   INFO Bool   = 0
MyAlg                INFO ....initialization done
MyGaudiAlg           INFO initializing....
MyGaudiAlg.MyTool    INFO intialize() has been called
MyGaudiAlg.MyTool    INFO Int    = 100
MyGaudiAlg.MyTool    INFO Double = 100
MyGaudiAlg.MyTool    INFO String = hundred
MyGaudiAlg.MyTool    INFO Bool   = 1
MyGaudiAlg.MyGa...   INFO intialize() has been called
MyGaudiAlg.MyGa...   INFO Int    = 100
MyGaudiAlg.MyGa...   INFO Double = 100
MyGaudiAlg.MyGa...   INFO String = hundred
MyGaudiAlg.MyGa...   INFO Bool   = 1
MyGaudiAlg.Tool...   INFO intialize() has been called
MyGaudiAlg.Tool...   INFO Int    = 100
MyGaudiAlg.Tool...   INFO Double = 100
MyGaudiAlg.Tool...   INFO String = hundred
MyGaudiAlg.Tool...   INFO Bool   = 1
MyGaudiAlg           INFO /Event/Rec/Tracks
MyGaudiAlg           INFO /Event/Rec/Hits
MyGaudiAlg           INFO /Rec/RAW
MyGaudiAlg           INFO /Event/MyAnalysis/Tracks
MyGaudiAlg.Wron...   INFO intialize() has been called
MyGaudiAlg.Wron...   INFO Int    = 100
MyGaudiAlg.Wron...   INFO Double = 100
MyGaudiAlg.Wron...   INFO String = hundred
MyGaudiAlg.Wron...   INFO Bool   = 1
MyGaudiAlg           INFO unable to retrieve MyTool/WrongIfaceTool (expected) with exception: unable to dcast AlgTool MyTool/WrongIfaceTool to interface IMyOtherTool
MyGaudiAlg           INFO ....initialization done
ToolSvc.Another...   INFO intialize() has been called
ToolSvc.Another...   INFO Int    = 100
ToolSvc.Another...   INFO Double = 100
ToolSvc.Another...   INFO String = hundred
ToolSvc.Another...   INFO Bool   = 1
ToolSvc.Another...   INFO intialize() has been called
ToolSvc.Another...   INFO Int    = 100
ToolSvc.Another...   INFO Double = 100
ToolSvc.Another...   INFO String = hundred
ToolSvc.Another...   INFO Bool   = 1
MyGaudiAlg.Priv...   INFO intialize() has been called
MyGaudiAlg.Priv...   INFO Int    = 100
MyGaudiAlg.Priv...   INFO Double = 100
MyGaudiAlg.Priv...   INFO String = Is a private tool
MyGaudiAlg.Priv...   INFO Bool   = 1
ToolSvc.TestPub...   INFO intialize() has been called
ToolSvc.TestPub...   INFO Int    = 100
ToolSvc.TestPub...   INFO Double = 100
ToolSvc.TestPub...   INFO String = Is a public tool
ToolSvc.TestPub...   INFO Bool   = 1
ToolSvc.Generic...   INFO intialize() has been called
ToolSvc.Generic...   INFO Int    = 100
ToolSvc.Generic...   INFO Double = 100
ToolSvc.Generic...   INFO String = hundred
ToolSvc.Generic...   INFO Bool   = 1
MyGaudiAlg.Lega...   INFO intialize() has been called
MyGaudiAlg.Lega...   INFO Int    = 100
MyGaudiAlg.Lega...   INFO Double = 100
MyGaudiAlg.Lega...   INFO String = hundred
MyGaudiAlg.Lega...   INFO Bool   = 1
ToolSvc.ToolA       DEBUG Property update for OutputLevel : new value = 2
ToolSvc.ToolA       DEBUG Initialize
ToolSvc.ToolA       DEBUG Initialize base class GaudiCommon<CounterHolder<AlgTool>>
ToolSvc.ToolA       DEBUG could not locate CounterSummarySvc, no counter summary will be made
ToolSvc.ToolA       DEBUG List of ALL properties of TestTool/ToolSvc.ToolA  #properties = 26
ToolSvc.ToolA       DEBUG Property ['Name': Value] =  'Tools':[ 'TestTool/ToolB' ]
ToolSvc.ToolA       DEBUG Property ['Name': Value] =  'ContextService':AlgContextSvc
ToolSvc.ToolA       DEBUG Property ['Name': Value] =  'StatEntityList':[  ]
ToolSvc.ToolA       DEBUG Property ['Name': Value] =  'CounterList':[ '.*' ]
ToolSvc.ToolA       DEBUG Property ['Name': Value] =  'UseEfficiencyRowFormat':True
ToolSvc.ToolA       DEBUG Property ['Name': Value] =  'EfficiencyRowFormat': |*%|-48.48s|%|50t||%|10d| |%|11.5g| |(%|#9.6g| +- %|-#9.6g|)%%|   -------   |   -------   |
ToolSvc.ToolA       DEBUG Property ['Name': Value] =  'RegularRowFormat': | %|-48.48s|%|50t||%|10d| |%|11.7g| |%|#11.5g| |%|#11.5g| |%|#12.5g| |%|#12.5g| |
ToolSvc.ToolA       DEBUG Property ['Name': Value] =  'StatTableHeader': |    Counter                                      |     #     |    sum     | mean/eff^* | rms/err^*  |     min     |     max     |
ToolSvc.ToolA       DEBUG Property ['Name': Value] =  'Context':
ToolSvc.ToolA       DEBUG Property ['Name': Value] =  'TypePrint':True
ToolSvc.ToolA       DEBUG Property ['Name': Value] =  'PrintEmptyCounters':False
ToolSvc.ToolA       DEBUG Property ['Name': Value] =  'StatPrint':True
ToolSvc.ToolA       DEBUG Property ['Name': Value] =  'PropertiesPrint':False
ToolSvc.ToolA       DEBUG Property ['Name': Value] =  'ErrorsPrint':True
ToolSvc.ToolA       DEBUG Property ['Name': Value] =  'RootInTES':
ToolSvc.ToolA       DEBUG Property ['Name': Value] =  'AuditRestart':False
ToolSvc.ToolA       DEBUG Property ['Name': Value] =  'AuditReinitialize':False
ToolSvc.ToolA       DEBUG Property ['Name': Value] =  'AuditFinalize':False
ToolSvc.ToolA       DEBUG Property ['Name': Value] =  'AuditStop':False
ToolSvc.ToolA       DEBUG Property ['Name': Value] =  'AuditStart':False
ToolSvc.ToolA       DEBUG Property ['Name': Value] =  'AuditInitialize':False
ToolSvc.ToolA       DEBUG Property ['Name': Value] =  'AuditTools':False
ToolSvc.ToolA       DEBUG Property ['Name': Value] =  'MonitorService':MonitorSvc
ToolSvc.ToolA       DEBUG Property ['Name': Value] =  'OutputLevel':2
ToolSvc.ToolA       DEBUG Property ['Name': Value] =  'ExtraOutputs':[]
ToolSvc.ToolA       DEBUG Property ['Name': Value] =  'ExtraInputs':[]
ToolSvc.ToolA       DEBUG Loading tool ToolB of type TestTool
ToolSvc.ToolB       DEBUG Property update for OutputLevel : new value = 2
ToolSvc.ToolB       DEBUG Initialize
ToolSvc.ToolB       DEBUG Initialize base class GaudiCommon<CounterHolder<AlgTool>>
ToolSvc.ToolB       DEBUG could not locate CounterSummarySvc, no counter summary will be made
ToolSvc.ToolB       DEBUG List of ALL properties of TestTool/ToolSvc.ToolB  #properties = 26
ToolSvc.ToolB       DEBUG Property ['Name': Value] =  'Tools':[ 'TestTool/ToolA' ]
ToolSvc.ToolB       DEBUG Property ['Name': Value] =  'ContextService':AlgContextSvc
ToolSvc.ToolB       DEBUG Property ['Name': Value] =  'StatEntityList':[  ]
ToolSvc.ToolB       DEBUG Property ['Name': Value] =  'CounterList':[ '.*' ]
ToolSvc.ToolB       DEBUG Property ['Name': Value] =  'UseEfficiencyRowFormat':True
ToolSvc.ToolB       DEBUG Property ['Name': Value] =  'EfficiencyRowFormat': |*%|-48.48s|%|50t||%|10d| |%|11.5g| |(%|#9.6g| +- %|-#9.6g|)%%|   -------   |   -------   |
ToolSvc.ToolB       DEBUG Property ['Name': Value] =  'RegularRowFormat': | %|-48.48s|%|50t||%|10d| |%|11.7g| |%|#11.5g| |%|#11.5g| |%|#12.5g| |%|#12.5g| |
ToolSvc.ToolB       DEBUG Property ['Name': Value] =  'StatTableHeader': |    Counter                                      |     #     |    sum     | mean/eff^* | rms/err^*  |     min     |     max     |
ToolSvc.ToolB       DEBUG Property ['Name': Value] =  'Context':
ToolSvc.ToolB       DEBUG Property ['Name': Value] =  'TypePrint':True
ToolSvc.ToolB       DEBUG Property ['Name': Value] =  'PrintEmptyCounters':False
ToolSvc.ToolB       DEBUG Property ['Name': Value] =  'StatPrint':True
ToolSvc.ToolB       DEBUG Property ['Name': Value] =  'PropertiesPrint':False
ToolSvc.ToolB       DEBUG Property ['Name': Value] =  'ErrorsPrint':True
ToolSvc.ToolB       DEBUG Property ['Name': Value] =  'RootInTES':
ToolSvc.ToolB       DEBUG Property ['Name': Value] =  'AuditRestart':False
ToolSvc.ToolB       DEBUG Property ['Name': Value] =  'AuditReinitialize':False
ToolSvc.ToolB       DEBUG Property ['Name': Value] =  'AuditFinalize':False
ToolSvc.ToolB       DEBUG Property ['Name': Value] =  'AuditStop':False
ToolSvc.ToolB       DEBUG Property ['Name': Value] =  'AuditStart':False
ToolSvc.ToolB       DEBUG Property ['Name': Value] =  'AuditInitialize':False
ToolSvc.ToolB       DEBUG Property ['Name': Value] =  'AuditTools':False
ToolSvc.ToolB       DEBUG Property ['Name': Value] =  'MonitorService':MonitorSvc
ToolSvc.ToolB       DEBUG Property ['Name': Value] =  'OutputLevel':2
ToolSvc.ToolB       DEBUG Property ['Name': Value] =  'ExtraOutputs':[]
ToolSvc.ToolB       DEBUG Property ['Name': Value] =  'ExtraInputs':[]
ToolSvc.ToolB       DEBUG Loading tool ToolA of type TestTool
ToolSvc.ToolB       DEBUG Registering tool ToolSvc.ToolA
ToolSvc.ToolA       DEBUG Registering tool ToolSvc.ToolB
EventLoopMgr      WARNING Unable to locate service "EventSelector"
EventLoopMgr      WARNING No events will be processed from external input.
HistogramPersis...WARNING Histograms saving not required.
ApplicationMgr       INFO Application Manager Initialized successfully
ApplicationMgr       INFO Application Manager Started successfully
MyAlg                INFO executing....
ToolSvc.MyTool       INFO doIt() has been called
ToolSvc.MyGaudi...   INFO doIt() has been called
ToolSvc.MyGaudi...   INFO MyGaudiTool:: public tool called by
MyAlg.MyTool         INFO doIt() has been called
MyAlg.MyGaudiTool    INFO doIt() has been called
MyAlg.ToolWithName   INFO doIt() has been called
MyAlg.MyGaudiTool    INFO doItAgain() has been called
MyGaudiAlg           INFO executing....
MyGaudiAlg           INFO tools created with tool<T>...
ToolSvc.MyTool       INFO doIt() has been called
MyGaudiAlg.MyTool    INFO doIt() has been called
ToolSvc.MyGaudi...   INFO doIt() has been called
ToolSvc.MyGaudi...   INFO MyGaudiTool:: public tool called by [MyGaudiAlg]
MyGaudiAlg.MyGa...   INFO doIt() has been called
MyGaudiAlg.Tool...   INFO doIt() has been called
MyGaudiAlg.MyGa...   INFO doItAgain() has been called
MyGaudiAlg           INFO tools created via ToolHandle<T>....
MyGaudiAlg.Priv...   INFO doIt() has been called
ToolSvc.TestPub...   INFO doIt() has been called
ToolSvc.ConstGe...   INFO intialize() has been called
ToolSvc.ConstGe...   INFO Int    = 100
ToolSvc.ConstGe...   INFO Double = 100
ToolSvc.ConstGe...   INFO String = hundred
ToolSvc.ConstGe...   INFO Bool   = 1
ToolSvc.ConstGe...   INFO doIt() has been called
MyGaudiAlg           INFO tools copied assigned via ToolHandle<T>....
ToolSvc.PubTool...   INFO intialize() has been called
ToolSvc.PubTool...   INFO Int    = 100
ToolSvc.PubTool...   INFO Double = 100
ToolSvc.PubTool...   INFO String = hundred
ToolSvc.PubTool...   INFO Bool   = 1
ToolSvc.PubTool...   INFO doIt() has been called
ToolSvc.PubTool...   INFO doIt() has been called
ToolSvc.ConstGe...   INFO doIt() has been called
MyGaudiAlg           INFO tools copied constructed via ToolHandle<T>....
ToolSvc.TestPub...   INFO doIt() has been called
MyGaudiAlg.Priv...   INFO doIt() has been called
ToolSvc.ConstGe...   INFO doIt() has been called
MyAlg                INFO executing....
ToolSvc.MyTool       INFO doIt() has been called
ToolSvc.MyGaudi...   INFO doIt() has been called
ToolSvc.MyGaudi...   INFO MyGaudiTool:: public tool called by
MyAlg.MyTool         INFO doIt() has been called
MyAlg.MyGaudiTool    INFO doIt() has been called
MyAlg.ToolWithName   INFO doIt() has been called
MyAlg.MyGaudiTool    INFO doItAgain() has been called
MyGaudiAlg           INFO executing....
MyGaudiAlg           INFO tools created with tool<T>...
ToolSvc.MyTool       INFO doIt() has been called
MyGaudiAlg.MyTool    INFO doIt() has been called
ToolSvc.MyGaudi...   INFO doIt() has been called
ToolSvc.MyGaudi...   INFO MyGaudiTool:: public tool called by [MyGaudiAlg]
MyGaudiAlg.MyGa...   INFO doIt() has been called
MyGaudiAlg.Tool...   INFO doIt() has been called
MyGaudiAlg.MyGa...   INFO doItAgain() has been called
MyGaudiAlg           INFO tools created via ToolHandle<T>....
MyGaudiAlg.Priv...   INFO doIt() has been called
ToolSvc.TestPub...   INFO doIt() has been called
ToolSvc.ConstGe...   INFO doIt() has been called
MyGaudiAlg           INFO tools copied assigned via ToolHandle<T>....
ToolSvc.PubTool...   INFO doIt() has been called
ToolSvc.PubTool...   INFO doIt() has been called
ToolSvc.ConstGe...   INFO doIt() has been called
MyGaudiAlg           INFO tools copied constructed via ToolHandle<T>....
ToolSvc.TestPub...   INFO doIt() has been called
MyGaudiAlg.Priv...   INFO doIt() has been called
ToolSvc.ConstGe...   INFO doIt() has been called
MyAlg                INFO executing....
ToolSvc.MyTool       INFO doIt() has been called
ToolSvc.MyGaudi...   INFO doIt() has been called
ToolSvc.MyGaudi...   INFO MyGaudiTool:: public tool called by
MyAlg.MyTool         INFO doIt() has been called
MyAlg.MyGaudiTool    INFO doIt() has been called
MyAlg.ToolWithName   INFO doIt() has been called
MyAlg.MyGaudiTool    INFO doItAgain() has been called
MyGaudiAlg           INFO executing....
MyGaudiAlg           INFO tools created with tool<T>...
ToolSvc.MyTool       INFO doIt() has been called
MyGaudiAlg.MyTool    INFO doIt() has been called
ToolSvc.MyGaudi...   INFO doIt() has been called
ToolSvc.MyGaudi...   INFO MyGaudiTool:: public tool called by [MyGaudiAlg]
MyGaudiAlg.MyGa...   INFO doIt() has been called
MyGaudiAlg.Tool...   INFO doIt() has been called
MyGaudiAlg.MyGa...   INFO doItAgain() has been called
MyGaudiAlg           INFO tools created via ToolHandle<T>....
MyGaudiAlg.Priv...   INFO doIt() has been called
ToolSvc.TestPub...   INFO doIt() has been called
ToolSvc.ConstGe...   INFO doIt() has been called
MyGaudiAlg           INFO tools copied assigned via ToolHandle<T>....
ToolSvc.PubTool...   INFO doIt() has been called
ToolSvc.PubTool...   INFO doIt() has been called
ToolSvc.ConstGe...   INFO doIt() has been called
MyGaudiAlg           INFO tools copied constructed via ToolHandle<T>....
ToolSvc.TestPub...   INFO doIt() has been called
MyGaudiAlg.Priv...   INFO doIt() has been called
ToolSvc.ConstGe...   INFO doIt() has been called
MyAlg                INFO executing....
ToolSvc.MyTool       INFO doIt() has been called
ToolSvc.MyGaudi...   INFO doIt() has been called
ToolSvc.MyGaudi...   INFO MyGaudiTool:: public tool called by
MyAlg.MyTool         INFO doIt() has been called
MyAlg.MyGaudiTool    INFO doIt() has been called
MyAlg.ToolWithName   INFO doIt() has been called
MyAlg.MyGaudiTool    INFO doItAgain() has been called
MyGaudiAlg           INFO executing....
MyGaudiAlg           INFO tools created with tool<T>...
ToolSvc.MyTool       INFO doIt() has been called
MyGaudiAlg.MyTool    INFO doIt() has been called
ToolSvc.MyGaudi...   INFO doIt() has been called
ToolSvc.MyGaudi...   INFO MyGaudiTool:: public tool called by [MyGaudiAlg]
MyGaudiAlg.MyGa...   INFO doIt() has been called
MyGaudiAlg.Tool...   INFO doIt() has been called
MyGaudiAlg.MyGa...   INFO doItAgain() has been called
MyGaudiAlg           INFO tools created via ToolHandle<T>....
MyGaudiAlg.Priv...   INFO doIt() has been called
ToolSvc.TestPub...   INFO doIt() has been called
ToolSvc.ConstGe...   INFO doIt() has been called
MyGaudiAlg           INFO tools copied assigned via ToolHandle<T>....
ToolSvc.PubTool...   INFO doIt() has been called
ToolSvc.PubTool...   INFO doIt() has been called
ToolSvc.ConstGe...   INFO doIt() has been called
MyGaudiAlg           INFO tools copied constructed via ToolHandle<T>....
ToolSvc.TestPub...   INFO doIt() has been called
MyGaudiAlg.Priv...   INFO doIt() has been called
ToolSvc.ConstGe...   INFO doIt() has been called
MyAlg                INFO executing....
ToolSvc.MyTool       INFO doIt() has been called
ToolSvc.MyGaudi...   INFO doIt() has been called
ToolSvc.MyGaudi...   INFO MyGaudiTool:: public tool called by
MyAlg.MyTool         INFO doIt() has been called
MyAlg.MyGaudiTool    INFO doIt() has been called
MyAlg.ToolWithName   INFO doIt() has been called
MyAlg.MyGaudiTool    INFO doItAgain() has been called
MyGaudiAlg           INFO executing....
MyGaudiAlg           INFO tools created with tool<T>...
ToolSvc.MyTool       INFO doIt() has been called
MyGaudiAlg.MyTool    INFO doIt() has been called
ToolSvc.MyGaudi...   INFO doIt() has been called
ToolSvc.MyGaudi...   INFO MyGaudiTool:: public tool called by [MyGaudiAlg]
MyGaudiAlg.MyGa...   INFO doIt() has been called
MyGaudiAlg.Tool...   INFO doIt() has been called
MyGaudiAlg.MyGa...   INFO doItAgain() has been called
MyGaudiAlg           INFO tools created via ToolHandle<T>....
MyGaudiAlg.Priv...   INFO doIt() has been called
ToolSvc.TestPub...   INFO doIt() has been called
ToolSvc.ConstGe...   INFO doIt() has been called
MyGaudiAlg           INFO tools copied assigned via ToolHandle<T>....
ToolSvc.PubTool...   INFO doIt() has been called
ToolSvc.PubTool...   INFO doIt() has been called
ToolSvc.ConstGe...   INFO doIt() has been called
MyGaudiAlg           INFO tools copied constructed via ToolHandle<T>....
ToolSvc.TestPub...   INFO doIt() has been called
MyGaudiAlg.Priv...   INFO doIt() has been called
ToolSvc.ConstGe...   INFO doIt() has been called
MyAlg                INFO executing....
ToolSvc.MyTool       INFO doIt() has been called
ToolSvc.MyGaudi...   INFO doIt() has been called
ToolSvc.MyGaudi...   INFO MyGaudiTool:: public tool called by
MyAlg.MyTool         INFO doIt() has been called
MyAlg.MyGaudiTool    INFO doIt() has been called
MyAlg.ToolWithName   INFO doIt() has been called
MyAlg.MyGaudiTool    INFO doItAgain() has been called
MyGaudiAlg           INFO executing....
MyGaudiAlg           INFO tools created with tool<T>...
ToolSvc.MyTool       INFO doIt() has been called
MyGaudiAlg.MyTool    INFO doIt() has been called
ToolSvc.MyGaudi...   INFO doIt() has been called
ToolSvc.MyGaudi...   INFO MyGaudiTool:: public tool called by [MyGaudiAlg]
MyGaudiAlg.MyGa...   INFO doIt() has been called
MyGaudiAlg.Tool...   INFO doIt() has been called
MyGaudiAlg.MyGa...   INFO doItAgain() has been called
MyGaudiAlg           INFO tools created via ToolHandle<T>....
MyGaudiAlg.Priv...   INFO doIt() has been called
ToolSvc.TestPub...   INFO doIt() has been called
ToolSvc.ConstGe...   INFO doIt() has been called
MyGaudiAlg           INFO tools copied assigned via ToolHandle<T>....
ToolSvc.PubTool...   INFO doIt() has been called
ToolSvc.PubTool...   INFO doIt() has been called
ToolSvc.ConstGe...   INFO doIt() has been called
MyGaudiAlg           INFO tools copied constructed via ToolHandle<T>....
ToolSvc.TestPub...   INFO doIt() has been called
MyGaudiAlg.Priv...   INFO doIt() has been called
ToolSvc.ConstGe...   INFO doIt() has been called
MyAlg                INFO executing....
ToolSvc.MyTool       INFO doIt() has been called
ToolSvc.MyGaudi...   INFO doIt() has been called
ToolSvc.MyGaudi...   INFO MyGaudiTool:: public tool called by
MyAlg.MyTool         INFO doIt() has been called
MyAlg.MyGaudiTool    INFO doIt() has been called
MyAlg.ToolWithName   INFO doIt() has been called
MyAlg.MyGaudiTool    INFO doItAgain() has been called
MyGaudiAlg           INFO executing....
MyGaudiAlg           INFO tools created with tool<T>...
ToolSvc.MyTool       INFO doIt() has been called
MyGaudiAlg.MyTool    INFO doIt() has been called
ToolSvc.MyGaudi...   INFO doIt() has been called
ToolSvc.MyGaudi...   INFO MyGaudiTool:: public tool called by [MyGaudiAlg]
MyGaudiAlg.MyGa...   INFO doIt() has been called
MyGaudiAlg.Tool...   INFO doIt() has been called
MyGaudiAlg.MyGa...   INFO doItAgain() has been called
MyGaudiAlg           INFO tools created via ToolHandle<T>....
MyGaudiAlg.Priv...   INFO doIt() has been called
ToolSvc.TestPub...   INFO doIt() has been called
ToolSvc.ConstGe...   INFO doIt() has been called
MyGaudiAlg           INFO tools copied assigned via ToolHandle<T>....
ToolSvc.PubTool...   INFO doIt() has been called
ToolSvc.PubTool...   INFO doIt() has been called
ToolSvc.ConstGe...   INFO doIt() has been called
MyGaudiAlg           INFO tools copied constructed via ToolHandle<T>....
ToolSvc.TestPub...   INFO doIt() has been called
MyGaudiAlg.Priv...   INFO doIt() has been called
ToolSvc.ConstGe...   INFO doIt() has been called
MyAlg                INFO executing....
ToolSvc.MyTool       INFO doIt() has been called
ToolSvc.MyGaudi...   INFO doIt() has been called
ToolSvc.MyGaudi...   INFO MyGaudiTool:: public tool called by
MyAlg.MyTool         INFO doIt() has been called
MyAlg.MyGaudiTool    INFO doIt() has been called
MyAlg.ToolWithName   INFO doIt() has been called
MyAlg.MyGaudiTool    INFO doItAgain() has been called
MyGaudiAlg           INFO executing....
MyGaudiAlg           INFO tools created with tool<T>...
ToolSvc.MyTool       INFO doIt() has been called
MyGaudiAlg.MyTool    INFO doIt() has been called
ToolSvc.MyGaudi...   INFO doIt() has been called
ToolSvc.MyGaudi...   INFO MyGaudiTool:: public tool called by [MyGaudiAlg]
MyGaudiAlg.MyGa...   INFO doIt() has been called
MyGaudiAlg.Tool...   INFO doIt() has been called
MyGaudiAlg.MyGa...   INFO doItAgain() has been called
MyGaudiAlg           INFO tools created via ToolHandle<T>....
MyGaudiAlg.Priv...   INFO doIt() has been called
ToolSvc.TestPub...   INFO doIt() has been called
ToolSvc.ConstGe...   INFO doIt() has been called
MyGaudiAlg           INFO tools copied assigned via ToolHandle<T>....
ToolSvc.PubTool...   INFO doIt() has been called
ToolSvc.PubTool...   INFO doIt() has been called
ToolSvc.ConstGe...   INFO doIt() has been called
MyGaudiAlg           INFO tools copied constructed via ToolHandle<T>....
ToolSvc.TestPub...   INFO doIt() has been called
MyGaudiAlg.Priv...   INFO doIt() has been called
ToolSvc.ConstGe...   INFO doIt() has been called
MyAlg                INFO executing....
ToolSvc.MyTool       INFO doIt() has been called
ToolSvc.MyGaudi...   INFO doIt() has been called
ToolSvc.MyGaudi...   INFO MyGaudiTool:: public tool called by
MyAlg.MyTool         INFO doIt() has been called
MyAlg.MyGaudiTool    INFO doIt() has been called
MyAlg.ToolWithName   INFO doIt() has been called
MyAlg.MyGaudiTool    INFO doItAgain() has been called
MyGaudiAlg           INFO executing....
MyGaudiAlg           INFO tools created with tool<T>...
ToolSvc.MyTool       INFO doIt() has been called
MyGaudiAlg.MyTool    INFO doIt() has been called
ToolSvc.MyGaudi...   INFO doIt() has been called
ToolSvc.MyGaudi...   INFO MyGaudiTool:: public tool called by [MyGaudiAlg]
MyGaudiAlg.MyGa...   INFO doIt() has been called
MyGaudiAlg.Tool...   INFO doIt() has been called
MyGaudiAlg.MyGa...   INFO doItAgain() has been called
MyGaudiAlg           INFO tools created via ToolHandle<T>....
MyGaudiAlg.Priv...   INFO doIt() has been called
ToolSvc.TestPub...   INFO doIt() has been called
ToolSvc.ConstGe...   INFO doIt() has been called
MyGaudiAlg           INFO tools copied assigned via ToolHandle<T>....
ToolSvc.PubTool...   INFO doIt() has been called
ToolSvc.PubTool...   INFO doIt() has been called
ToolSvc.ConstGe...   INFO doIt() has been called
MyGaudiAlg           INFO tools copied constructed via ToolHandle<T>....
ToolSvc.TestPub...   INFO doIt() has been called
MyGaudiAlg.Priv...   INFO doIt() has been called
ToolSvc.ConstGe...   INFO doIt() has been called
MyAlg                INFO executing....
ToolSvc.MyTool       INFO doIt() has been called
ToolSvc.MyGaudi...   INFO doIt() has been called
ToolSvc.MyGaudi...   INFO MyGaudiTool:: The INFO message is suppressed : 'public tool called by'
MyAlg.MyTool         INFO doIt() has been called
MyAlg.MyGaudiTool    INFO doIt() has been called
MyAlg.ToolWithName   INFO doIt() has been called
MyAlg.MyGaudiTool    INFO doItAgain() has been called
MyGaudiAlg           INFO executing....
MyGaudiAlg           INFO tools created with tool<T>...
ToolSvc.MyTool       INFO doIt() has been called
MyGaudiAlg.MyTool    INFO doIt() has been called
ToolSvc.MyGaudi...   INFO doIt() has been called
ToolSvc.MyGaudi...   INFO MyGaudiTool:: The INFO message is suppressed : 'public tool called by [MyGaudiAlg]'
MyGaudiAlg.MyGa...   INFO doIt() has been called
MyGaudiAlg.Tool...   INFO doIt() has been called
MyGaudiAlg.MyGa...   INFO doItAgain() has been called
MyGaudiAlg           INFO tools created via ToolHandle<T>....
MyGaudiAlg.Priv...   INFO doIt() has been called
ToolSvc.TestPub...   INFO doIt() has been called
ToolSvc.ConstGe...   INFO doIt() has been called
MyGaudiAlg           INFO tools copied assigned via ToolHandle<T>....
ToolSvc.PubTool...   INFO doIt() has been called
ToolSvc.PubTool...   INFO doIt() has been called
ToolSvc.ConstGe...   INFO doIt() has been called
MyGaudiAlg           INFO tools copied constructed via ToolHandle<T>....
ToolSvc.TestPub...   INFO doIt() has been called
MyGaudiAlg.Priv...   INFO doIt() has been called
ToolSvc.ConstGe...   INFO doIt() has been called
ApplicationMgr       INFO Application Manager Stopped successfully
MyAlg                INFO finalizing....
MyGaudiAlg           INFO finalizing....
EventLoopMgr         INFO Histograms converted successfully according to request.
ToolSvc              INFO Removing all tools created by ToolSvc
MyGaudiAlg.Tool...   INFO finalize() has been called
MyGaudiAlg.MyGa...   INFO finalize() has been called
MyGaudiAlg.MyTool    INFO finalize() has been called
MyAlg.ToolWithName   INFO finalize() has been called
MyAlg.MyGaudiTool    INFO finalize() has been called
MyAlg.MyTool         INFO finalize() has been called
ToolSvc.MyGaudi...   INFO finalize() has been called
ToolSvc.MyTool       INFO finalize() has been called
ToolSvc.ToolB       DEBUG Finalize
ToolSvc.ToolB       DEBUG  ==> Finalize the base class GaudiTool
ToolSvc.ToolB       DEBUG Tools to release : ToolSvc.ToolA
ToolSvc.ToolB       DEBUG Releasing tool 'ToolSvc.ToolA'
ToolSvc.ToolB       DEBUG De-Registering tool ToolSvc.ToolA
ToolSvc.ToolB       DEBUG The tool 'ToolSvc.ToolA' of type 'TestTool' is released
ToolSvc.ToolB       DEBUG Services to release :
ToolSvc.ToolA       DEBUG Finalize
ToolSvc.ToolA       DEBUG  ==> Finalize the base class GaudiTool
ToolSvc.ToolA       DEBUG Tools to release : ToolSvc.ToolB
ToolSvc.ToolA       DEBUG Releasing tool 'ToolSvc.ToolB'
ToolSvc.ToolA       DEBUG De-Registering tool ToolSvc.ToolB
ToolSvc.ToolA       DEBUG The tool 'ToolSvc.ToolB' of type 'TestTool' is released
ToolSvc.ToolA       DEBUG Services to release :
MyGaudiAlg.Lega...   INFO finalize() has been called
ToolSvc.Generic...   INFO finalize() has been called
ToolSvc.Another...   INFO finalize() has been called
ToolSvc.Another...   INFO finalize() has been called
MyGaudiAlg.Wron...   INFO finalize() has been called
ToolSvc.PubTool...   INFO finalize() has been called
ToolSvc.TestPub...   INFO finalize() has been called
MyGaudiAlg.Priv...   INFO finalize() has been called
ToolSvc.ConstGe...   INFO finalize() has been called
MyGaudiAlg.Tool...   INFO destructor has been called
MyGaudiAlg.MyGa...   INFO destructor has been called
MyGaudiAlg.MyTool    INFO destructor has been called
MyAlg.ToolWithName   INFO destructor has been called
MyAlg.MyGaudiTool    INFO destructor has been called
MyAlg.MyTool         INFO destructor has been called
ToolSvc.MyGaudi...   INFO destructor has been called
ToolSvc.MyTool       INFO destructor has been called
MyGaudiAlg.Lega...   INFO destructor has been called
ToolSvc.Generic...   INFO destructor has been called
ToolSvc.Another...   INFO destructor has been called
ToolSvc.Another...   INFO destructor has been called
MyGaudiAlg.Wron...   INFO destructor has been called
ToolSvc.PubTool...   INFO destructor has been called
ToolSvc.TestPub...   INFO destructor has been called
MyGaudiAlg.Priv...   INFO destructor has been called
ToolSvc.ConstGe...   INFO destructor has been called
ApplicationMgr       INFO Application Manager Finalized successfully
ApplicationMgr       INFO Application Manager Terminated successfully
